<?xml version="1.0" encoding="utf-8"?>
<!-- Generator: Adobe Illustrator 20.1.0, SVG Export Plug-In . SVG Version: 6.00 Build 0)  -->
<svg version="1.1" xmlns="http://www.w3.org/2000/svg" xmlns:xlink="http://www.w3.org/1999/xlink" x="0px" y="0px"
	 viewBox="0 0 260.5 311.2" style="enable-background:new 0 0 260.5 311.2;" xml:space="preserve">
<style type="text/css">
	.st0{fill:#FFFFFF;stroke:#000000;stroke-width:2;stroke-miterlimit:10;}
	.st1{fill:none;stroke:#000000;stroke-width:2;stroke-miterlimit:10;}
</style>
<g id="Слой_2">
	<path class="st0" d="M257.8,232.4c-3.7,4.9-8.9,11-15.8,17.2c-3,2.7-11.2,9.7-23.5,16.2c-12.8,6.8-23.9,9.8-28.7,11
		c-12,2.9-21.4,3.2-27,3.3c-7.9,0.2-20.2,0.4-35.3-3.7c-8.8-2.4-15.1-5.2-20.3-7.7c-7-3.2-18-8.4-29.7-18
		c-3.1-2.6-15.7-13.2-26.7-31.3c-11.3-18.8-15.6-36.7-17.3-48.7"/>
</g>
<g id="Слой_3">
	<path class="st1" d="M258.5,267.1c-5.7,5.2-10.8,9.3-14.9,12.3c-5.1,3.8-9.6,7.3-16.3,11c-6.2,3.5-11.1,5.5-16.5,7.8
		c-4.6,1.9-10.1,4.2-17.3,6.3c-12.9,3.7-23.2,4.5-29.5,5c-12.9,0.9-22.8,0.1-26.8-0.3c-12.1-1.2-21.2-3.7-25.3-4.8
		c-11.7-3.4-20.1-7.4-25.5-10c-5.2-2.5-12.8-6.2-21.8-12.7c-2.5-1.8-9.8-7.1-18.2-15.3c-5.3-5.3-13.4-14-21.2-26.2
		c-8.1-12.6-12.4-23.4-14.2-28c-2.3-6.1-5.5-15.7-7.5-27.8c-1.3-7.5-1.6-13.3-1.8-16.8c-0.2-3.6-0.8-14.6,0.3-26.3
		c2.2-22.4,10.2-39.5,13.7-46.8c8.6-18,18.6-30.3,23.8-36.2c6.2-6.9,17.2-18.2,33.7-28.3c14.2-8.8,26.5-13.2,31.5-14.8
		c1.7-0.6,10.4-3.4,22.2-5.5c10.2-1.8,18-2.2,19.7-2.3c0,0,11.5-0.6,23.2,0.7c15.5,1.7,40.2,9.1,67.4,24.9"/>
</g>
</svg>
