<?xml version="1.0" encoding="utf-8"?>
<svg version="1.1" xmlns="http://www.w3.org/2000/svg" xmlns:xlink="http://www.w3.org/1999/xlink" x="0px" y="0px"
	 viewBox="0 0 22.8 22.8" style="enable-background:new 0 0 22.8 22.8;" xml:space="preserve">
<g>
	<g>
		<polygon fill="#010202" points="14.5,10.6 14.1,10.8 14.3,9.1 14.7,9.1 14.7,9 		"/>
	</g>
	<g>
		<g>
			<path fill="#010202" d="M11.4,22.8C5.1,22.8,0,17.7,0,11.4S5.1,0,11.4,0s11.4,5.1,11.4,11.4S17.7,22.8,11.4,22.8z M11.4,0.4
				c-6.1,0-11,4.9-11,11s4.9,11,11,11s11-5,11-11S17.4,0.4,11.4,0.4z M12.2,18.2H9.4v-6.6H8.2V8.4h1.2V7.5c0-1.4,0.8-3,3-3h2.3v2.7
				H13c-0.3,0-0.4,0.1-0.4,0.4v0.8h2.1v0.1l0,0v0.2l-0.3,2.9h-2v6.6l0,0H12.2z M9.8,17.8h2.3v-6.6h2l0.2-2.3l0,0V8.8h-2.1V7.6
				c0-0.6,0.4-0.8,0.8-0.8h1.3V4.9h-1.9c-2.4,0-2.6,2-2.6,2.6v1.3H8.6v2.4h1.2V17.8z"/>
		</g>
	</g>
</g>
</svg>
