<svg xmlns="http://www.w3.org/2000/svg" xmlns:xlink="http://www.w3.org/1999/xlink" preserveAspectRatio="xMidYMid" width="73.678" height="65.178" viewBox="0 0 36.839 32.589">
  <path d="M18.420,7.652 C13.893,-2.995 1.025,-0.511 0.940,11.846 C0.893,18.633 7.068,21.170 11.179,23.883 C15.165,26.515 18.002,30.114 18.447,31.646 C18.827,30.145 21.987,26.444 25.677,23.810 C29.712,20.930 35.963,18.559 35.916,11.772 C35.831,-0.616 22.739,-2.571 18.420,7.652 Z" fill="none" stroke="#87d8c2" stroke-width="1.87"/>
</svg>
